[
  {
    "id": "22",
    "name": "Zibbra oAuth2",
    "domain": null,
    "description": "Implementation of the oAuth2 protocol to allow Zibbra users and web-applications to authenticate against the Zibbra Cloud.",
    "image": "zibbra-oauth.png",
    "link": null,
    "featured": false,
    "highlights": ["Symfony", "XML-RPC API", "oAuth2 Spec", "2 factor authentication with Yubikey and Google Authenticator"]
  },
  {
    "id": "18",
    "name": "SwootMedia",
    "domain": null,
    "description": "Cloud platform to design and implement e-magazines with rich media, all from your browser and published in a few clicks.",
    "image": "swootmedia.png",
    "link": null,
    "featured": false,
    "highlights": ["Built for Webline", "Built in native JavaScript", "Exports to SWF or PDF", "No longer in use :("]
  },
  {
    "id": "16",
    "name": "BbyB",
    "domain": null,
    "description": "Wholesale ordering system for chocolatier BbyB, built from scratch and connected to their internal backend systems.",
    "image": "bbyb.png",
    "link": null,
    "featured": false,
    "highlights": ["Built for Webline", "No longer in use :("]
  },
  {
    "id": "2",
    "name": "RDK",
    "domain": "rdk.be",
    "description": "Custom wordpress theme and plugin to manage the IMMO section of the website.",
    "image": "rdk.png",
    "link": "http://rdk.be",
    "featured": false,
    "highlights": ["Wordpress", "FoundationPress", "Built from scratch", "Custom IMMO plugin", "Several custom widgets"]
  },
  {
    "id": "13",
    "name": "Alternativo",
    "domain": null,
    "description": "Ordering of medical documents for osteopathic physicians, connected to Group Joos backend for printing and delivery.",
    "image": "alternativo.png",
    "link": null,
    "featured": false,
    "highlights": ["Webline PHP framework", "Portal for osteopathic physicians", "SOAP interface with Joos back-end", "Extensive reporting"]
  },
  {
    "id": "8",
    "name": "Balloon Kyphoplasty",
    "domain": null,
    "description": "Collaboration project between Medtronic and Procter & Gamble to connect patients, surgeons and doctors.",
    "image": "balloonkyphoplasty.png",
    "link": null,
    "featured": false,
    "highlights": [
      "Webline PHP framework",
      "Backend and portals for patients/doctors/surgeons",
      "Referral system",
      "Extensive reporting",
      "No longer in use :("
    ]
  },
  {
    "id": "9",
    "name": "Ticket Box",
    "domain": null,
    "description": "Football ticket order system with integration to the Group Joos backend for printing and delivery of the ticket.",
    "image": "ticketbox.png",
    "link": null,
    "featured": false,
    "highlights": [
      "Drupal",
      "Webline PHP framework",
      "Portal for stores to order tickets",
      "Extensive reporting",
      "SOAP interface with Joos back-end",
      "No longer in use :("
    ]
  },
  {
    "id": "1",
    "name": "Shoot Supply",
    "domain": null,
    "description": "Webshop build from scratch on WooCommerce together with several custom plugins.",
    "image": "shootsupply.png",
    "link": null,
    "featured": false,
    "highlights": ["WooCommerce", "FoundationPress", "Built from scratch", "Connected with Exact Online", "Custom Stock/Value plugin", "Many custom widgets"]
  },
  {
    "id": "6",
    "name": "DigiGoods",
    "domain": null,
    "description": "Demonstration webshop for Zibbra. Build in Wordpress with sage starter framework and the Zibbra E-commerce plugin.",
    "image": "digigoods.png",
    "link": null,
    "featured": false,
    "highlights": ["Wordpress","Drupal", "Zibbra E-Commerce plugin", "Theme from scratch using sage/bootstrap"]
  },
  {
    "id": "24",
    "name": "John Martin",
    "domain": null,
    "description": "Website with custom ordering system for coffee subscriptions built for Philips / Senseo Belgium.",
    "image": "john-martin.png",
    "link": null,
    "featured": false,
    "highlights": [
      "Wordpress with Zibbra plugin",
      "Theme from scratch using sage/bootstrap",
      "Custom plugin for subscription system with backend management",
      "Mollie subscription service integrated"
    ]
  },
  {
    "id": "5",
    "name": "Belfius Demo Shop",
    "domain": null,
    "description": "Demo shop for partnership between Zibbra and Belfius. Build in Wordpress with the Zibbra E-commerce plugin.",
    "image": "belfiusdemoshop.png",
    "link": null,
    "featured": false,
    "highlights": ["Wordpress", "Zibbra E-Commerce plugin", "Theme from scratch using sage/bootstrap"]
  },
  {
    "id": "4",
    "name": "Zibbra Cloud",
    "domain": "zibbra.com",
    "description": "Architecting and lead development of the Zibbra Cloud E-Commerce platform.",
    "image": "zibbra.png",
    "link": "https://zibbra.com",
    "featured": true,
    "highlights": [
      "Cloud E-Commerce platform",
      "Built from scratch",
      "Custom PHP Framework",
      "XML-RPC API interface",
      "Client Library in PHP and Java",
      "my.zibbra.com backend",
      "Secured by oAuth2 and 2-factor"
    ]
  },
  {
    "id": "23",
    "name": "Zibbra Print Service",
    "domain": null,
    "description": "API driven conversion service from HTML5 / LESS / JSON / Smarty / CSS3 / images to beautiful PDF documents, and generation of QR codes.",
    "image": "zibbra-print.png",
    "link": null,
    "featured": false,
    "highlights": [
      "HTML5 / CSS3 conversion",
      "Smarty templates with JSON data",
      "LESS to CSS compilation",
      "Generation of QR codes",
      "Symfony platform",
      "REST API"
    ]
  },
  {
    "id": "19",
    "name": "Zibbra POS",
    "domain": null,
    "description": "Cloud POS, used on a tablet or customer hardware. Provides all features needed for small retail stores. Even works while being offline.",
    "image": "zibbra-pos.png",
    "link": null,
    "featured": false,
    "highlights": ["Runs in browser", "PHP Gateway", "Connected to Zibbra Cloud", "Built with bootstrap/jquery/js", "New version with Angular4"]
  },
  {
    "id": "7",
    "name": "My Senseo Coffeeclub",
    "domain": null,
    "description": "Website with custom ordering system for coffee subscriptions built for Philips / Senseo Belgium.",
    "image": "mscc.png",
    "link": null,
    "featured": false,
    "highlights": [
      "Wordpress with Zibbra plugin",
      "Theme from scratch using sage/bootstrap",
      "Custom plugin for subscription system with backend management",
      "Mollie subscription service integrated"
    ]
  },
  {
    "id": "11",
    "name": "G4S Event Services",
    "domain": null,
    "description": "Custom ERP application built for G4S Event Services to manage personnel, events, materials, costs, sales, etc...",
    "image": "g4s_eventservices.png",
    "link": null,
    "featured": false,
    "highlights": [
      "Webline PHP framework",
      "ERP / CRM / HR application custoim built for Event Services department",
      "Advanced personnel and equipment planning tools",
      "Extensive reporting"
    ]
  },
  {
    "id": "3",
    "name": "Confocus",
    "domain": "confocus.be",
    "description": "2-way integration between the ITC backend software and website to list and order seminars.",
    "image": "confocus.png",
    "link": "http://confocus.be",
    "featured": false,
    "highlights": [
      "Existing Wordpress website",
      "Removed WooCommerce",
      "Removed Event plugin",
      "Build a custom replacement plugin",
      "XML integration (2way) with ITC backend"
    ]
  },
  {
    "id": "20",
    "name": "Zibbra Infrastructure",
    "domain": null,
    "description": "Needless to say that the infrastructure behind a platform like Zibbra is quite complicated. I have been the architect of this endeavor.",
    "image": "zibbra-infrastructure.png",
    "link": null,
    "featured": false,
    "highlights": [
      "Claranet Cloud Infrastructure",
      "Amazon AWS",
      "FreeBSD and Linux servers",
      "Custom management software",
      "High-availability",
      "Auto-scaling and balancing"
    ]
  },
  {
    "id": "21",
    "name": "SprintPack API",
    "domain": null,
    "description": "Custom build REST API in Laravel, to easily connect various E-Commerce platforms to SprintPack WMS and shipping carriers.",
    "image": "sprintpack-api.png",
    "link": null,
    "featured": false,
    "highlights": ["Laravel", "REST API", "Connected to SprintPack WMS", "Connected to several Carriers", "API Calls and Webhooks"]
  },
  {
    "id": "12",
    "name": "Print Concept",
    "domain": null,
    "description": "Webshop and back-end built from scratch to allow ordering and processing of customizable printing products.",
    "image": "printconcept.png",
    "link": null,
    "featured": false,
    "highlights": ["Built for Webline", "Has been rebuild few years ago"]
  },
  {
    "id": "17",
    "name": "2fast4u VZW",
    "domain": null,
    "description": "vBulleting forum with some custom integrations, maintaining both web-applications and servers for over 10 years now.",
    "image": "2fast4u.png",
    "link": null,
    "featured": false,
    "highlights": ["vBulletin forum", "Custom backend application", "GoDaddy VPS servers"]
  },
  {
    "id": "10",
    "name": "Webline Manager",
    "domain": null,
    "description": "Control Panel custom built for Webline Hosting services, from web-interface, to backend, to server-side deployment.",
    "image": "webline-manager.png",
    "link": null,
    "featured": false,
    "highlights": [
      "Webline PHP framework",
      "Centralized portal for admin, reseller, customer, hosting & email levels",
      "Custom scripting and server software for real-time provisioning",
      "Company has been sold"
    ]
  },
  {
    "id": "15",
    "name": "FES Gateway",
    "domain": null,
    "description": "Fax-email-sms gateway application, with an easy to use API, based on credits. Front-end, back-end, API and server-side application.",
    "image": "fesgateway.png",
    "link": null,
    "featured": false,
    "highlights": ["Built for Webline", "No longer in use :(", "PostgreSQL", "PHP", "SOAP interface", "REST interface"]
  },
  {
    "id": "14",
    "name": "DigiCAT",
    "domain": null,
    "description": "Informational video platform for citizens of Dessel and nearby cities to inform about the Nuclear storage facility.",
    "image": "digicat.png",
    "link": null,
    "featured": false,
    "highlights": ["Government Project", "Assignment by RTV", "Streaming video", "Connected to RTV media platform", "PostgreSQL", "PHP"]
  },
  {
    "id": "25",
    "name": "Designers & Friends",
    "domain": "designersandfriends.com",
    "description": "New Quantum project for Vente-Exclusive where we already migrate Denmark to the new system. Webshop built with Angular 7 and using .NET microservices as a backend.",
    "image": "designersandfriends.png",
    "link": "https://www.designersandfriends.com",
    "featured": true,
    "highlights": [".NET Microservices", "Google Kubernetes", "Angular 7", "Vente-Exclusive.com"]
  },
  {
    "id": "26",
    "name": "VP Logistics Portal",
    "domain": "vente-exclusive.com",
    "description": "New Portal project for VP Logistics, built with a micro-frontend architecture, using SPA/Angular 7 and a lot of neat technologies.",
    "image": "vptech.png",
    "link": "https://alwinroosen.tech/assets/docs/vptech-logistics.pdf",
    "featured": true,
    "highlights": [
      "Micro Front-End architecture",
      "Material Design",
      "Angular 7 / React / JavaScript / TypeScript",
      "PWA / Service Workers",
      "GraphQL / WebSockets",
      "Cypress / Jest / Bazel"
    ]
  },
  {
    "id": "27",
    "name": "GS1 Front-End Library",
    "domain": "gs1belu.org",
    "description": "Library project shared amongst every front-end application, consisting of an Angular library and various bits of tooling",
    "image": "library.gs1.png",
    "link": "https://gs1belu.org/nl/productinformatie-my-product-manager-gdsn",
    "featured": true,
    "highlights": [
      "Angular library to accommodate quick setup and shared functionalities",
      "NodeJS Express web server",
      "GlueGun / NodeJS CLI for easy deployments and other tasks",
      "Bootstrap based theme",
      "Cypress test framework",
      "Kitchensink project, showcasing generic components and styling"
    ]
  },
  {
    "id": "28",
    "name": "My Product Manager",
    "domain": "myproducts.gs1belu.org",
    "description": "My Product Manager allows customers of GS1 to either manage (suppliers), or view (recipients) global data connected to their GTINs (barcodes). It is a fully dynamic UI driven by server-side validation models.",
    "image": "myproducts.gs1.png",
    "link": "https://gs1belu.org/nl/productinformatie-my-product-manager-gdsn",
    "featured": true,
    "highlights": [
      "Angular 12 / Express / NodeJS / GlueGun",
      "Azure & DevOps integration",
      ".NET Microservices / REST API",
      "Automated testing with Cypress / Jest",
      "Fully server-side driven UI"
    ]
  },
  {
    "id": "29",
    "name": "Editorial Content Gateway",
    "domain": "dpgmedia.be",
    "description": "Automate importing of robot articles and historical imports of entire websites",
    "image": "editorial-content-gateway.jpg",
    "link": "https://dpgmedia.be",
    "featured": true,
    "highlights": ["TypeScript / NodeJS", "AWS Step Functions", "AWS DynamoDB storage", "AWS SQS/SNS"]
  },
  {
    "id": "30",
    "name": "Collaborative Article Editor",
    "domain": "dpgmedia.be",
    "description": "We've build a fully collaborative article editor for all written media in DPG Media (Print & Digital)",
    "image": "article-toolkit.jpg",
    "link": "https://dpgmedia.be",
    "featured": true,
    "highlights": [
      "NextJS / React / TypeScript",
      "Server-side rendering (SSR), CSR, SSG",
      "Redux / Jotai",
      "Zod / Express / NodeJS",
      "Java (Spring Boot) + NodeJS backends",
      "AWS Serverless API",
      "AWS ECS hosting",
      "MongoDB + DynamoDB storage",
      "Collaborative editing using Y.js"
    ]
  },
  {
    "id": "31",
    "name": "Nice Little Things (Side-business)",
    "domain": "nicelittlethings.be",
    "description": "This is my side-business (webshop) where we produce personalized gifts and party supplies in BE,NL,FR,DE,LU",
    "image": "nicelittlethings.jpg",
    "link": "https://nicelittlethings.be",
    "featured": true,
    "highlights": [
      "NextJS / React / TypeScript",
      "Server-side rendering (SSR), CSR, SSG",
      "Redux / Jotai",
      "Zod / Express / NodeJS",
      "WooCommerce PMS",
      "AWS Serverless API",
      "AWS & Vercel hosting",
      "NodeJS Backend",
      "Custom OMS & many integrations",
      "TTD/DDD"
    ]
  }
]
